Flows, Watered pixels count, Sigma, All pixels count, Dimensions, Src
9.95,461140,0.01,6180710,2699x2290,e:\mgr\processed\153_once_again_all\20151104_044323\20151104_044323_cal_crop_spk_tc.dim
33.708,628,0.01,21150108,4937x4284,e:\mgr\processed\153_once_again_all\20150402_044320\20150402_044320_cal_crop_spk_tc.dim
9.747,458769,0.01,6170736,2697x2288,e:\mgr\processed\153_once_again_all\20150707_044319\20150707_044319_cal_crop_spk_tc.dim
11.98,460815,0.01,6180710,2699x2290,e:\mgr\processed\153_once_again_all\20150625_044320\20150625_044320_cal_crop_spk_tc.dim
7.791,461563,0.01,6190692,2701x2292,e:\mgr\processed\153_once_again_all\20150824_044322\20150824_044322_cal_crop_spk_tc.dim
8.776,461107,0.01,6187991,2701x2291,e:\mgr\processed\153_once_again_all\20150812_044321\20150812_044321_cal_crop_spk_tc.dim
18.512,203,0.01,21150108,4937x4284,e:\mgr\processed\153_once_again_all\20151116_044328\20151116_044328_cal_crop_spk_tc.dim
36.546,79635,0.01,21155045,4937x4285,e:\mgr\processed\153_once_again_all\20150309_044320\20150309_044320_cal_crop_spk_tc.dim
30.88,837,0.01,21150108,4937x4284,e:\mgr\processed\153_once_again_all\20150508_044322\20150508_044322_cal_crop_spk_tc.dim
8.341,460759,0.01,6187991,2701x2291,e:\mgr\processed\153_once_again_all\20150917_044323\20150917_044323_cal_crop_spk_tc.dim
11.708,287274,0.01,9507648,4306x2208,e:\mgr\processed\153_once_again_all\20151023_044348\20151023_044348_cal_crop_spk_tc.dim
9.95,285662,0.01,9503342,4306x2207,e:\mgr\processed\153_once_again_all\20151104_044348\20151104_044348_cal_crop_spk_tc.dim
9.716,293330,0.01,9496830,4305x2206,e:\mgr\processed\153_once_again_all\20151011_044348\20151011_044348_cal_crop_spk_tc.dim
41.487,43446,0.01,21155045,4937x4285,e:\mgr\processed\153_once_again_all\20150108_044320\20150108_044320_cal_crop_spk_tc.dim
11.98,285629,0.01,9498928,4304x2207,e:\mgr\processed\153_once_again_all\20150625_044345\20150625_044345_cal_crop_spk_tc.dim
9.747,285089,0.01,9514050,4305x2210,e:\mgr\processed\153_once_again_all\20150707_044344\20150707_044344_cal_crop_spk_tc.dim
9.716,466661,0.01,6190692,2701x2292,e:\mgr\processed\153_once_again_all\20151011_044323\20151011_044323_cal_crop_spk_tc.dim
7.791,286006,0.01,9496830,4305x2206,e:\mgr\processed\153_once_again_all\20150824_044347\20150824_044347_cal_crop_spk_tc.dim
29.792,654,0.01,21150108,4937x4284,e:\mgr\processed\153_once_again_all\20150520_044323\20150520_044323_cal_crop_spk_tc.dim
34.282,50184,0.01,21150108,4937x4284,e:\mgr\processed\153_once_again_all\20150225_044319\20150225_044319_cal_crop_spk_tc.dim
13.19,460155,0.01,6178011,2699x2289,e:\mgr\processed\153_once_again_all\20150613_044319\20150613_044319_cal_crop_spk_tc.dim
38.801,14451,0.01,21141540,4935x4284,e:\mgr\processed\153_once_again_all\20150201_044320\20150201_044320_cal_crop_spk_tc.dim
35.452,32323,0.01,21150108,4937x4284,e:\mgr\processed\153_once_again_all\20150321_044320\20150321_044320_cal_crop_spk_tc.dim
9.977,287583,0.01,9492525,4305x2205,e:\mgr\processed\153_once_again_all\20150929_044348\20150929_044348_cal_crop_spk_tc.dim
21.333,253,0.01,21159330,4938x4285,e:\mgr\processed\153_once_again_all\20151222_044327\20151222_044327_cal_crop_spk_tc.dim
24.531,285831,0.01,9503342,4306x2207,e:\mgr\processed\153_once_again_all\20150601_044343\20150601_044343_cal_crop_spk_tc.dim
36.955,7374,0.01,21150108,4937x4284,e:\mgr\processed\153_once_again_all\20150414_044321\20150414_044321_cal_crop_spk_tc.dim
11.708,459696,0.01,6178011,2699x2289,e:\mgr\processed\153_once_again_all\20151023_044323\20151023_044323_cal_crop_spk_tc.dim
36.872,37608,0.01,21155045,4937x4285,e:\mgr\processed\153_once_again_all\20150120_044320\20150120_044320_cal_crop_spk_tc.dim
8.776,286742,0.01,9503342,4306x2207,e:\mgr\processed\153_once_again_all\20150812_044346\20150812_044346_cal_crop_spk_tc.dim
13.19,286044,0.01,9503232,4304x2208,e:\mgr\processed\153_once_again_all\20150613_044344\20150613_044344_cal_crop_spk_tc.dim
8.341,286238,0.01,9496830,4305x2206,e:\mgr\processed\153_once_again_all\20150917_044348\20150917_044348_cal_crop_spk_tc.dim
18.618,18670,0.01,21145824,4936x4284,e:\mgr\processed\153_once_again_all\20151128_044328\20151128_044328_cal_crop_spk_tc.dim
9.977,462311,0.01,6190692,2701x2292,e:\mgr\processed\153_once_again_all\20150929_044323\20150929_044323_cal_crop_spk_tc.dim
32.915,7480,0.01,21155045,4937x4285,e:\mgr\processed\153_once_again_all\20150426_044321\20150426_044321_cal_crop_spk_tc.dim
24.531,460902,0.01,6180710,2699x2290,e:\mgr\processed\153_once_again_all\20150601_044318\20150601_044318_cal_crop_spk_tc.dim
